[
  {
    "id": 9001,
    "army": "Non-Aligned Armies",
    "isc": "Yuan Yuan",
    "legacy_isc": "Yuan Yuan",
    "name": "Yuan Yuan",
    "type": "WB",
    "classification": "Mercenary",
    "imp": "X",
    "irr": "X",
    "cube": "",
    "mov": "4-4",
    "cc": "19",
    "bs": "9",
    "ph": "14",
    "wip": "13",
    "arm": "0",
    "bts": "0",
    "w": "1",
    "s": "2",
    "ava": "4",
    "spec": [
      "Booty L1",
      "AD: Inferior Combat Jump"
    ],
    "childs": [
      {
        "id": 1,
        "name": "Rifle",
        "legacy_code": "Rifle",
        "cost": "14",
        "swc": "0",
        "spec": [],
        "bsw": [
          "Smoke Grenades",
          "Rifle"
        ],
        "ccw": [
          "Pistol",
          "Shock CCW"
        ]
      },
      {
        "id": 2,
        "name": "Boarding Shotgun",
        "legacy_code": "Boarding Shotgun",
        "cost": "16",
        "swc": "0",
        "spec": [],
        "bsw": [
          "Smoke Grenades",
          "Boarding Shotgun"
        ],
        "ccw": [
          "Pistol",
          "Shock CCW"
        ]
      },
      {
        "id": 3,
        "name": "AP CCW",
        "legacy_code": "AP CCW",
        "cost": "8",
        "swc": "0",
        "spec": [],
        "bsw": [
          "Smoke Grenades",
          "Chain Rifle"
        ],
        "ccw": [
          "Pistol",
          "AP CCW"
        ]
      },
      {
        "id": 4,
        "name": "DA CCW",
        "legacy_code": "DA CCW",
        "cost": "9",
        "swc": "0",
        "spec": [],
        "bsw": [
          "Smoke Grenades",
          "Chain Rifle"
        ],
        "ccw": [
          "Pistol",
          "DA CCW"
        ]
      },
      {
        "id": 5,
        "name": "Shock CCW",
        "legacy_code": "Default",
        "cost": "8",
        "swc": "0",
        "spec": [],
        "bsw": [
          "Smoke Grenades",
          "Chain Rifle"
        ],
        "ccw": [
          "Pistol",
          "Shock CCW"
        ]
      }
    ]
  },
  {
    "id": 9002,
    "army": "Non-Aligned Armies",
    "isc": "Bashi Bazouks",
    "legacy_isc": "Bashi Bazouk",
    "name": "Bashi Bazouk",
    "type": "LI",
    "classification": "Mercenary",
    "imp": "",
    "irr": "X",
    "cube": "",
    "mov": "4-4",
    "cc": "15",
    "bs": "11",
    "ph": "10",
    "wip": "12",
    "arm": "2",
    "bts": "0",
    "w": "1",
    "s": "2",
    "ava": "2",
    "spec": [
      "AD: Parachutist / Zero-G",
      "Holoprojector L2"
    ],
    "childs": [
      {
        "id": 1,
        "name": "Rifle",
        "legacy_code": "Default",
        "cost": "16",
        "swc": "0",
        "spec": [],
        "bsw": [
          "Rifle",
          "Light Shotgun"
        ],
        "ccw": [
          "Knife",
          "Pistol"
        ]
      },
      {
        "id": 2,
        "name": "Boarding Shotgun",
        "legacy_code": "Boarding Shotgun",
        "cost": "15",
        "swc": "0",
        "spec": [],
        "bsw": [
          "Boarding Shotgun"
        ],
        "ccw": [
          "Knife",
          "Pistol"
        ]
      },
      {
        "id": 3,
        "name": "AP Rifle",
        "legacy_code": "AP Rifle",
        "cost": "17",
        "swc": "0",
        "spec": [],
        "bsw": [
          "AP Rifle"
        ],
        "ccw": [
          "CCW",
          "Breaker Pistol (2)"
        ]
      },
      {
        "id": 4,
        "name": "E/Mauler",
        "legacy_code": "E/Mauler",
        "cost": "17",
        "swc": "0",
        "spec": [],
        "bsw": [
          "Combi Rifle",
          "E/Mauler"
        ],
        "ccw": [
          "CCW",
          "Pistol"
        ]
      },
      {
        "id": 5,
        "name": "Submachine Gun",
        "cost": "12",
        "swc": "0",
        "spec": [],
        "bsw": [
          "Submachine Gun",
          "Chain-Colt"
        ],
        "ccw": [
          "CCW",
          "Pistol"
        ]
      }
    ]
  },
  {
    "id": 9003,
    "army": "Non-Aligned Armies",
    "isc": "Druze Shock Teams",
    "legacy_isc": "Druze Shock Teams",
    "name": "Druze",
    "type": "MI",
    "classification": "Mercenary",
    "imp": "",
    "irr": "",
    "cube": "X",
    "mov": "4-2",
    "cc": "15",
    "bs": "12",
    "ph": "11",
    "wip": "13",
    "arm": "3",
    "bts": "3",
    "w": "1",
    "s": "2",
    "ava": "2",
    "spec": [
      "Fatality L1",
      "Veteran L1"
    ],
    "childs": [
      {
        "id": 1,
        "name": "Combi",
        "legacy_code": "Default",
        "cost": "23",
        "swc": "0",
        "spec": [
          "X Visor"
        ],
        "bsw": [
          "Combi Rifle",
          "Chain-Colt"
        ],
        "ccw": [
          "Viral Pistol",
          "Knife"
        ]
      },
      {
        "id": 2,
        "name": "Assault Hacker",
        "legacy_code": "Hacker",
        "cost": "28",
        "swc": "0.5",
        "spec": [
          "Assault Hacking Device"
        ],
        "bsw": [
          "Combi Rifle",
          "Pitcher",
          "D-Charges"
        ],
        "ccw": [
          "Viral Pistol",
          "Knife"
        ]
      },
      {
        "id": 3,
        "name": "Light Grenade Launcher",
        "legacy_code": "LGL",
        "cost": "27",
        "swc": "0.5",
        "spec": [
          "X Visor"
        ],
        "bsw": [
          "Combi Rifle",
          "E/M Light Grenade Launcher",
          "Light Nimbus Grenade Launcher"
        ],
        "ccw": [
          "Viral Pistol",
          "Knife"
        ]
      },
      {
        "id": 4,
        "name": "HMG",
        "legacy_code": "Spitfire",
        "cost": "29",
        "swc": "1.5",
        "spec": [],
        "bsw": [
          "HMG",
          "Chain-Colt"
        ],
        "ccw": [
          "Viral Pistol",
          "Knife"
        ]
      },
      {
        "id": 5,
        "name": "Marksman Rifle",
        "cost": "27",
        "swc": "0",
        "spec": [
          "X Visor"
        ],
        "bsw": [
          "Shock Marksman Rifle",
          "Chain-Colt"
        ],
        "ccw": [
          "Viral Pistol",
          "Knife"
        ]
      },
      {
        "id": 6,
        "name": "Killer Hacker",
        "cost": "25",
        "swc": "0",
        "spec": [
          "Killer Hacking Device"
        ],
        "bsw": [
          "Combi Rifle",
          "Pitcher",
          "D-Charges"
        ],
        "ccw": [
          "Viral Pistol",
          "Knife"
        ]
      },
      {
        "id": 7,
        "name": "Panzerfaust",
        "cost": "25",
        "swc": "0",
        "spec": [
          "X Visor"
        ],
        "bsw": [
          "Combi Rifle",
          "Chain-Colt",
          "Panzerfaust"
        ],
        "ccw": [
          "Viral Pistol",
          "Knife"
        ]
      }
    ]
  },
  {
    "id": 9004,
    "army": "Non-Aligned Armies",
    "isc": "Highlander Caterans",
    "legacy_isc": "Highlander Caterans",
    "name": "Cateran",
    "type": "LI",
    "classification": "Mercenary",
    "imp": "",
    "irr": "X",
    "cube": "",
    "mov": "4-4",
    "cc": "19",
    "bs": "12",
    "ph": "13",
    "wip": "12",
    "arm": "0",
    "bts": "0",
    "w": "1",
    "s": "2",
    "ava": "1",
    "spec": [
      "CH: Limited Camouflage",
      "CH: Mimetism",
      "Climbing Plus"
    ],
    "childs": [
      {
        "id": 1,
        "name": "T2 Sniper Rifle",
        "legacy_code": "T2 Sniper Rifle",
        "cost": "24",
        "swc": "1",
        "spec": [],
        "bsw": [
          "T2 Sniper Rifle"
        ],
        "ccw": [
          "AP CCW",
          "Pistol"
        ]
      },
      {
        "id": 2,
        "name": "Sniper Rifle",
        "legacy_code": "Default",
        "cost": "21",
        "swc": "0.5",
        "spec": [],
        "bsw": [
          "Sniper Rifle"
        ],
        "ccw": [
          "AP CCW",
          "Pistol"
        ]
      }
    ]
  },
  {
    "id": 9005,
    "army": "Non-Aligned Armies",
    "isc": "McMurrough",
    "legacy_isc": "McMurrough",
    "name": "McMurrough",
    "type": "WB",
    "classification": "Mercenary",
    "imp": "X",
    "irr": "X",
    "cube": "",
    "mov": "6-4",
    "cc": "23",
    "bs": "11",
    "ph": "16",
    "wip": "14",
    "arm": "4",
    "bts": "3",
    "w": "2",
    "s": "6",
    "ava": "1",
    "spec": [
      "Martial Arts L3",
      "Total Immunity",
      "Kinematika L2",
      "Super-Jump"
    ],
    "childs": [
      {
        "id": 1,
        "name": "Chain Rifle",
        "legacy_code": "Default",
        "cost": "31",
        "swc": "0",
        "spec": [],
        "bsw": [
          "Grenades",
          "Smoke Grenades",
          "Chain Rifle (2)"
        ],
        "ccw": [
          "Templar CCW (AP+DA)"
        ]
      }
    ]
  },
  {
    "id": 9006,
    "army": "Non-Aligned Armies",
    "isc": "Kempeitai",
    "legacy_isc": "Kempeitai",
    "name": "Kempei",
    "type": "LI",
    "classification": "Mercenary",
    "imp": "",
    "irr": "",
    "cube": "X",
    "mov": "4-4",
    "cc": "14",
    "bs": "12",
    "ph": "10",
    "wip": "14",
    "arm": "1",
    "bts": "0",
    "w": "1",
    "s": "2",
    "ava": "1",
    "spec": [
      "Sixth Sense L1",
      "V: Courage",
      "Basic Impersonation: Yu Jing"
    ],
    "childs": [
      {
        "id": 1,
        "name": "Boarding Shotgun",
        "legacy_code": "Boarding Shotgun",
        "cost": "18",
        "swc": "0",
        "spec": [],
        "bsw": [
          "Boarding Shotgun"
        ],
        "ccw": [
          "D-Charges",
          "Pistol",
          "CCW",
          "Electric Pulse",
          "Knife"
        ]
      },
      {
        "id": 2,
        "name": "Combi",
        "legacy_code": "Default",
        "cost": "19",
        "swc": "0",
        "spec": [],
        "bsw": [
          "Combi Rifle"
        ],
        "ccw": [
          "D-Charges",
          "Pistol",
          "CCW",
          "Electric Pulse",
          "Knife"
        ]
      }
    ]
  },
  {
    "id": 9007,
    "army": "Non-Aligned Armies",
    "isc": "Saito Tōgan",
    "legacy_isc": "Saito Tōgan",
    "name": "Saito Tōgan",
    "type": "SK",
    "classification": "Mercenary",
    "imp": "",
    "irr": "",
    "cube": "X",
    "mov": "4-4",
    "cc": "24",
    "bs": "11",
    "ph": "13",
    "wip": "13",
    "arm": "1",
    "bts": "0",
    "w": "1",
    "s": "2",
    "ava": "1",
    "spec": [
      "Martial Arts L4",
      "CH: TO Camouflage",
      "Multiterrain",
      "Kinematika L1",
      "Infiltration"
    ],
    "childs": [
      {
        "id": 1,
        "name": "Combi",
        "legacy_code": "Default",
        "cost": "39",
        "swc": "0",
        "spec": [],
        "bsw": [
          "Combi Rifle",
          "Smoke Grenades"
        ],
        "ccw": [
          "Pistol",
          "EXP CCW",
          "Knife"
        ]
      }
    ]
  },
  {
    "id": 9008,
    "army": "Non-Aligned Armies",
    "isc": "Miyamoto Mushashi",
    "legacy_isc": "Miyamoto Mushashi",
    "name": "Miyamoto Mushashi",
    "type": "WB",
    "classification": "Mercenary",
    "imp": "",
    "irr": "X",
    "cube": "X",
    "mov": "6-4",
    "cc": "25",
    "bs": "9",
    "ph": "14",
    "wip": "15",
    "arm": "1",
    "bts": "3",
    "w": "1",
    "s": "2",
    "ava": "1",
    "spec": [
      "Martial Arts L5",
      "Dual Wield",
      "Kinematika L2",
      "V: No Wound Incapacitation"
    ],
    "childs": [
      {
        "id": 1,
        "name": "Chain Rifle",
        "legacy_code": "Default",
        "cost": "24",
        "swc": "0",
        "spec": [],
        "bsw": [
          "Chain Rifle",
          "Flash Pulse"
        ],
        "ccw": [
          "AP CCW",
          "EXP CCW",
          "Pistol"
        ]
      }
    ]
  },
  {
    "id": 9009,
    "army": "Non-Aligned Armies",
    "isc": "Avicenna, Mercenary Doctor",
    "legacy_isc": "Avicenna",
    "name": "Avicenna",
    "type": "LI",
    "classification": "Mercenary",
    "imp": "",
    "irr": "",
    "cube": "X",
    "mov": "6-2",
    "cc": "13",
    "bs": "11",
    "ph": "11",
    "wip": "15",
    "arm": "2",
    "bts": "3",
    "w": "1",
    "s": "2",
    "ava": "1",
    "spec": [
      "MediKit",
      "Doctor Plus",
      "V: No Wound Incapacitation"
    ],
    "childs": [
      {
        "id": 1,
        "name": "Doctor",
        "legacy_code": "Default",
        "cost": "27",
        "swc": "0",
        "spec": [],
        "bsw": [
          "Combi Rifle",
          "Flash Pulse"
        ],
        "ccw": [
          "Pistol",
          "Knife"
        ]
      }
    ]
  },
  {
    "id": 9010,
    "army": "Non-Aligned Armies",
    "isc": "Father Lucien Sforza",
    "legacy_isc": "Father Lucien Sforza",
    "name": "Sforza",
    "type": "LI",
    "classification": "Mercenary",
    "imp": "",
    "irr": "X",
    "cube": "X",
    "mov": "4-4",
    "cc": "17",
    "bs": "13",
    "ph": "11",
    "wip": "13",
    "arm": "2",
    "bts": "0",
    "w": "1",
    "s": "2",
    "ava": "1",
    "spec": [
      "Holoprojector L2",
      "X Visor"
    ],
    "childs": [
      {
        "id": 1,
        "name": "Viral Rifle",
        "legacy_code": "Default",
        "cost": "25",
        "swc": "0",
        "spec": [],
        "bsw": [
          "Viral Rifle",
          "Adhesive Launcher",
          "Nanopulser"
        ],
        "ccw": [
          "Pistol",
          "Electric Pulse"
        ]
      }
    ]
  },
  {
    "id": 9011,
    "army": "Non-Aligned Armies",
    "isc": "Señor Massacre",
    "legacy_isc": "Señor Massacre",
    "name": "Señor Massacre",
    "type": "WB",
    "classification": "Mercenary",
    "imp": "F",
    "irr": "",
    "cube": "X",
    "mov": "4-4",
    "cc": "23",
    "bs": "12",
    "ph": "13",
    "wip": "13",
    "arm": "2",
    "bts": "3",
    "w": "1",
    "s": "2",
    "ava": "1",
    "spec": [
      "Dual Wield",
      "Natural Born Warrior",
      "Kinematika L2",
      "Regeneration"
    ],
    "childs": [
      {
        "id": 1,
        "name": "Breaker Combi",
        "legacy_code": "Default",
        "cost": "29",
        "swc": "0",
        "spec": [],
        "bsw": [
          "E/M Grenades",
          "Eclipse Grenades",
          "Breaker Combi Rifle"
        ],
        "ccw": [
          "Pistol",
          "AP CCW",
          "E/M CCW"
        ]
      },
      {
        "id": 2,
        "name": "Boarding Shotgun",
        "legacy_code": "Boarding Shotgun",
        "cost": "26",
        "swc": "0",
        "spec": [],
        "bsw": [
          "E/M Grenades",
          "Eclipse Grenades",
          "Boarding Shotgun"
        ],
        "ccw": [
          "Pistol",
          "AP CCW",
          "E/M CCW"
        ]
      },
      {
        "id": 3,
        "name": "Breaker Combi Haris",
        "cost": "30",
        "swc": "0.5",
        "spec": [
          "Fireteam: Haris"
        ],
        "bsw": [
          "E/M Grenades",
          "Eclipse Grenades",
          "Breaker Combi Rifle"
        ],
        "ccw": [
          "Pistol",
          "AP CCW",
          "E/M CCW"
        ]
      },
      {
        "id": 4,
        "name": "Boarding Shotgun Haris",
        "cost": "27",
        "swc": "0.5",
        "spec": [],
        "bsw": [
          "E/M Grenades",
          "Eclipse Grenades",
          "Boarding Shotgun"
        ],
        "ccw": [
          "Pistol",
          "AP CCW",
          "E/M CCW"
        ]
      }
    ]
  },
  {
    "id": 9012,
    "army": "Non-Aligned Armies",
    "isc": "Valerya Gromoz, Mercenary Hacker",
    "legacy_isc": "Valerya Gromoz, Mercenary Hacker",
    "name": "Valerya Gromoz",
    "type": "LI",
    "classification": "Mercenary",
    "imp": "",
    "irr": "",
    "cube": "X",
    "mov": "4-4",
    "cc": "13",
    "bs": "11",
    "ph": "10",
    "wip": "14",
    "arm": "1",
    "bts": "0",
    "w": "1",
    "s": "2",
    "ava": "1",
    "spec": [
      "Hacking Device: UPGRADE: Expel"
    ],
    "childs": [
      {
        "id": 1,
        "name": "Hacker",
        "legacy_code": "Default",
        "cost": "21",
        "swc": "0.5",
        "spec": [],
        "bsw": [
          "Combi Rifle",
          "Pitcher"
        ],
        "ccw": [
          "Pistol",
          "Knife"
        ]
      }
    ]
  },
  {
    "id": 9013,
    "army": "Non-Aligned Armies",
    "isc": "Kaplan Tactical Services (KTS)",
    "legacy_isc": "KTS, Kaplan Tactical Services",
    "name": "Kaplan",
    "type": "LI",
    "classification": "Mercenary",
    "imp": "",
    "irr": "",
    "cube": "",
    "mov": "4-4",
    "cc": "13",
    "bs": "12",
    "ph": "11",
    "wip": "14",
    "arm": "2",
    "bts": "6",
    "w": "1",
    "s": "2",
    "ava": "3",
    "spec": [
      "CH: Mimetism",
      "V: Courage"
    ],
    "childs": [
      {
        "id": 1,
        "name": "ADHL",
        "legacy_code": "ADHL",
        "cost": "23",
        "swc": "0",
        "spec": [],
        "bsw": [
          "Combi Rifle",
          "Adhesive Launcher"
        ],
        "ccw": [
          "Pistol",
          "Knife",
          "D-Charges"
        ]
      },
      {
        "id": 2,
        "name": "Blitzen",
        "legacy_code": "Default",
        "cost": "23",
        "swc": "0",
        "spec": [],
        "bsw": [
          "Combi Rifle",
          "Blitzen"
        ],
        "ccw": [
          "Pistol",
          "Knife"
        ]
      },
      {
        "id": 3,
        "name": "MULTI Sniper Rifle",
        "legacy_code": "MULTI Sniper Rifle",
        "cost": "30",
        "swc": "1.5",
        "spec": [],
        "bsw": [
          "MULTI Sniper Rifle"
        ],
        "ccw": [
          "Pistol",
          "Knife"
        ]
      },
      {
        "id": 4,
        "name": "Spitfire",
        "legacy_code": "Spitfire",
        "cost": "28",
        "swc": "1",
        "spec": [],
        "bsw": [
          "Spitfire"
        ],
        "ccw": [
          "Pistol",
          "Knife"
        ]
      },
      {
        "id": 5,
        "name": "Engineer ADHL",
        "legacy_code": "Engineer ADHL",
        "cost": "27",
        "swc": "0",
        "spec": [
          "Engineer"
        ],
        "bsw": [
          "Combi Rifle",
          "Adhesive Launcher"
        ],
        "ccw": [
          "Pistol",
          "Knife",
          "D-Charges"
        ]
      },
      {
        "id": 6,
        "name": "Engineer Blitzen",
        "legacy_code": "Engineer Blitzen",
        "cost": "27",
        "swc": "0",
        "spec": [
          "Engineer"
        ],
        "bsw": [
          "Combi Rifle",
          "Blitzen"
        ],
        "ccw": [
          "Pistol",
          "Knife"
        ]
      },
      {
        "id": 7,
        "name": "Doctor",
        "legacy_code": "Doctor",
        "cost": "27",
        "swc": "0",
        "spec": [
          "Doctor",
          "MediKit"
        ],
        "bsw": [
          "Combi Rifle",
          "Blitzen"
        ],
        "ccw": [
          "Pistol",
          "Knife"
        ]
      }
    ]
  },
  {
    "id": 9014,
    "army": "Non-Aligned Armies",
    "isc": "Yojimbo, Sword for Hire",
    "legacy_isc": "Yojimbo",
    "name": "Yojimbo",
    "ava": "1",
    "spec": [],
    "profiles": [
      {
        "id": 1,
        "type": "WB",
        "classification": "Mercenary",
        "imp": "X",
        "irr": "X",
        "cube": "X",
        "mov": "8-6",
        "cc": "24",
        "bs": "12",
        "ph": "14",
        "wip": "13",
        "arm": "1",
        "bts": "3",
        "w": "1",
        "s": "4",
        "spec": [
          "Martial Arts L4",
          "Motorcycle",
          "Kinematika L2",
          "V: No Wound Incapacitation"
        ],
        "bsw": [
          "Smoke Light Grenade Launcher"
        ],
        "ccw": []
      },
      {
        "id": 2,
        "name": "Dismounted",
        "mov": "4-4",
        "s": "2",
        "ava": " ",
        "spec": [
          "Martial Arts L4",
          "Kinematika L1",
          "V: No Wound Incapacitation"
        ],
        "bsw": [],
        "ccw": []
      },
      {
        "id": 3,
        "name": "CrazyKoala",
        "type": "",
        "classification": "",
        "mov": "6-4 ",
        "cc": "",
        "bs": "",
        "ph": "",
        "wip": "",
        "arm": "0",
        "bts": "0",
        "w": "1 ",
        "s": "1",
        "spec": [
          "Perimeter"
        ],
        "bsw": [],
        "ccw": []
      }
    ],
    "childs": [
      {
        "id": 1,
        "name": "Contender",
        "legacy_code": "Default",
        "cost": "21",
        "swc": "0",
        "spec": [],
        "bsw": [
          "Contender",
          "Nanopulser",
          "Smoke Grenades",
          "CrazyKoalas"
        ],
        "ccw": [
          "Pistol",
          "DA CCW"
        ]
      }
    ]
  },
  {
    "id": 9015,
    "army": "Non-Aligned Armies",
    "isc": "Scarface & Cordelia",
    "legacy_isc": "Scarface",
    "name": "Scarface",
    "ava": "1",
    "spec": [],
    "profiles": [
      {
        "id": 1,
        "name": "Scarface",
        "type": "TAG",
        "classification": "Mercenary",
        "imp": "F",
        "irr": "",
        "cube": "X",
        "hackable": "X",
        "mov": "6-4",
        "cc": "19",
        "bs": "13",
        "ph": "15",
        "wip": "13",
        "arm": "5",
        "bts": "6",
        "w": "3",
        "s": "7",
        "spec": [
          "ECM",
          "V: Courage",
          "Manned",
          "Assault"
        ],
        "bsw": [],
        "ccw": [],
        "independent": {
          "cost": "51",
          "swc": "1.5"
        }
      },
      {
        "id": 2,
        "name": "Cordelia Turner",
        "type": "LI",
        "imp": "",
        "irr": "",
        "cube": "X",
        "hackable": "",
        "mov": "4-4",
        "cc": "13",
        "bs": "11",
        "ph": "10",
        "wip": "13",
        "arm": "1",
        "bts": "3",
        "w": "1",
        "s": "2",
        "ava": "1",
        "spec": [
          "CH: Mimetism",
          "Engineer",
          "V: Courage"
        ],
        "bsw": [
          "Combi Rifle",
          "Chain-Colt"
        ],
        "ccw": [
          "D-Charges",
          "Pistol",
          "Knife"
        ],
        "independent": {
          "cost": "17",
          "swc": "0"
        }
      },
      {
        "id": 3,
        "name": "Pilot",
        "type": "LI",
        "hackable": "",
        "mov": "4-4",
        "cc": "15",
        "bs": "12",
        "ph": "11",
        "wip": "13",
        "arm": "0",
        "bts": "0",
        "w": "1",
        "s": "2",
        "ava": "",
        "spec": [
          "Pilot",
          "V: Courage",
          "Specialist Operative"
        ],
        "bsw": [
          "Light Shotgun"
        ],
        "ccw": [
          "Pistol",
          "CCW"
        ]
      }
    ],
    "childs": [
      {
        "id": 1,
        "name": "Mk12",
        "legacy_code": "Default",
        "cost": "68",
        "swc": "1.5",
        "spec": [],
        "bsw": [
          "Mk12 (2)",
          "Panzerfaust"
        ],
        "ccw": [
          "CCW"
        ]
      }
    ]
  },
  {
    "id": 9016,
    "army": "Non-Aligned Armies",
    "isc": "Anaconda",
    "legacy_isc": "Anaconda",
    "name": "Anaconda",
    "ava": "1",
    "spec": [],
    "profiles": [
      {
        "id": 1,
        "isc": "Anaconda",
        "type": "TAG",
        "classification": "Mercenary",
        "imp": "",
        "irr": "",
        "cube": "X",
        "hackable": "X",
        "mov": "4-4",
        "cc": "16",
        "bs": "13",
        "ph": "16",
        "wip": "13",
        "arm": "6",
        "bts": "6",
        "w": "2",
        "s": "7",
        "spec": [
          "ECM",
          "Escape System",
          "V: Courage",
          "Manned"
        ],
        "bsw": [],
        "ccw": [
          "CCW"
        ]
      },
      {
        "id": 2,
        "name": "Operator",
        "type": "LI",
        "hackable": "",
        "mov": "4-4",
        "cc": "13",
        "bs": "12",
        "ph": "10",
        "wip": "13",
        "arm": "1",
        "bts": "3",
        "w": "1",
        "s": "2",
        "ava": "",
        "spec": [
          "Operator",
          "V: Courage"
        ],
        "bsw": [
          "Spitfire"
        ],
        "ccw": [
          "Pistol",
          "Knife"
        ]
      }
    ],
    "childs": [
      {
        "id": 1,
        "name": "Spitfire",
        "legacy_code": "Default",
        "cost": "62",
        "swc": "2",
        "spec": [],
        "bsw": [
          "Spitfire",
          "Light Flamethrower",
          "Panzerfaust"
        ],
        "ccw": []
      },
      {
        "id": 2,
        "name": "HMG",
        "cost": "64",
        "swc": "2",
        "spec": [],
        "bsw": [
          "HMG",
          "Chain-Colt",
          "Panzerfaust"
        ],
        "ccw": []
      }
    ]
  },
  {
    "id": 9017,
    "army": "Non-Aligned Armies",
    "isc": "Warcor",
    "legacy_isc": "Warcor",
    "name": "Warcor",
    "type": "LI",
    "classification": "Mercenary",
    "imp": "",
    "irr": "X",
    "cube": "X",
    "mov": "4-4",
    "cc": "10",
    "bs": "9",
    "ph": "11",
    "wip": "13",
    "arm": "0",
    "bts": "0",
    "w": "1",
    "s": "2",
    "ava": "2",
    "spec": [
      "Journalist L1"
    ],
    "childs": [
      {
        "id": 1,
        "name": "Sixth Sense",
        "legacy_code": "Default",
        "cost": "3",
        "swc": "0",
        "spec": [
          "Sixth Sense L1"
        ],
        "bsw": [
          "Flash Pulse"
        ],
        "ccw": [
          "Stun Pistol",
          "Knife"
        ]
      },
      {
        "id": 2,
        "name": "Aerocam",
        "legacy_code": "Aerocam",
        "cost": "3",
        "swc": "0",
        "spec": [
          "Aerocam"
        ],
        "bsw": [
          "Flash Pulse"
        ],
        "ccw": [
          "Stun Pistol",
          "Knife"
        ]
      }
    ]
  },
  {
    "id": 9018,
    "army": "Non-Aligned Armies",
    "isc": "Authorized Bounty Hunters",
    "legacy_isc": "Authorized Bounty Hunters",
    "name": "Bounty Hunter",
    "type": "LI",
    "classification": "Mercenary",
    "imp": "",
    "irr": "X",
    "cube": "X",
    "mov": "4-4",
    "cc": "14",
    "bs": "12",
    "ph": "10",
    "wip": "13",
    "arm": "1",
    "bts": "3",
    "w": "1",
    "s": "2",
    "ava": "3",
    "spec": [
      "Booty L2",
      "Stealth"
    ],
    "childs": [
      {
        "id": 1,
        "name": "Combi",
        "legacy_code": "Default",
        "cost": "14",
        "swc": "0",
        "spec": [],
        "bsw": [
          "Combi Rifle"
        ],
        "ccw": [
          "Pistol",
          "Knife"
        ]
      },
      {
        "id": 2,
        "name": "Boarding Shotgun",
        "legacy_code": "Boarding Shotgun",
        "cost": "13",
        "swc": "0",
        "spec": [],
        "bsw": [
          "Boarding Shotgun"
        ],
        "ccw": [
          "Pistol",
          "Knife"
        ]
      },
      {
        "id": 3,
        "name": "Sniper Rifle",
        "legacy_code": "Sniper Rifle",
        "cost": "19",
        "swc": "0.5",
        "spec": [],
        "bsw": [
          "Sniper Rifle"
        ],
        "ccw": [
          "Breaker Pistol (2)",
          "Knife"
        ]
      },
      {
        "id": 4,
        "name": "Spitfire",
        "legacy_code": "Spitfire",
        "cost": "20",
        "swc": "1",
        "spec": [],
        "bsw": [
          "Spitfire"
        ],
        "ccw": [
          "Pistol",
          "Knife"
        ]
      }
    ]
  },
  {
    "id": 9019,
    "army": "Non-Aligned Armies",
    "isc": "Miranda Ashcroft",
    "legacy_isc": "Miranda Ashcroft",
    "name": "Miranda Ashcroft",
    "image": 9018,
    "type": "LI",
    "classification": "Mercenary",
    "imp": "",
    "irr": "X",
    "cube": "X",
    "mov": "4-4",
    "cc": "18",
    "bs": "12",
    "ph": "10",
    "wip": "13",
    "arm": "1",
    "bts": "3",
    "w": "1",
    "s": "2",
    "ava": "1",
    "spec": [
      "ODD: Optical Disruptor",
      "I-Kohl L1",
      "Stealth"
    ],
    "childs": [
      {
        "id": 1,
        "name": "Combi",
        "legacy_code": "Default",
        "cost": "19",
        "swc": "0",
        "spec": [],
        "bsw": [
          "Nanopulser",
          "Combi Rifle"
        ],
        "ccw": [
          "Pistol",
          "Monofilament CCW"
        ]
      },
      {
        "id": 2,
        "name": "Boarding Shotgun",
        "legacy_code": "Boarding Shotgun",
        "cost": "18",
        "swc": "0",
        "spec": [],
        "bsw": [
          "Nanopulser",
          "Boarding Shotgun"
        ],
        "ccw": [
          "Pistol",
          "Monofilament CCW"
        ]
      }
    ]
  },
  {
    "id": 9020,
    "army": "Non-Aligned Armies",
    "isc": "CSU, Corporate Security Unit",
    "legacy_isc": "CSU, Corporate Security Unit",
    "name": "CSU",
    "type": "LI",
    "classification": "Mercenary",
    "imp": "",
    "irr": "",
    "cube": "X",
    "mov": "4-4",
    "cc": "14",
    "bs": "12",
    "ph": "10",
    "wip": "12",
    "arm": "0",
    "bts": "3",
    "w": "1",
    "s": "2",
    "ava": "1",
    "spec": [
      "MetaChemistry",
      "Sixth Sense L1"
    ],
    "childs": [
      {
        "id": 1,
        "name": "Breaker Rifle",
        "legacy_code": "Default",
        "cost": "12",
        "swc": "0",
        "spec": [],
        "bsw": [
          "Breaker Rifle"
        ],
        "ccw": [
          "Knife",
          "Pistol"
        ]
      },
      {
        "id": 2,
        "name": "Combi",
        "legacy_code": "Combi",
        "cost": "12",
        "swc": "0",
        "spec": [],
        "bsw": [
          "Combi Rifle",
          "Nanopulser"
        ],
        "ccw": [
          "Knife",
          "Pistol"
        ]
      },
      {
        "id": 3,
        "name": "Boarding Shotgun",
        "legacy_code": "Boarding Shotgun",
        "cost": "11",
        "swc": "0",
        "spec": [],
        "bsw": [
          "Boarding Shotgun",
          "Nanopulser"
        ],
        "ccw": [
          "Knife",
          "Pistol"
        ]
      }
    ]
  },
  {
    "id": 9021,
    "army": "Non-Aligned Armies",
    "isc": "Wardrivers",
    "legacy_isc": "Wardrivers",
    "name": "Wardriver",
    "type": "LI",
    "classification": "Mercenary",
    "imp": "",
    "irr": "",
    "cube": "X",
    "mov": "4-4",
    "cc": "13",
    "bs": "11",
    "ph": "10",
    "wip": "13",
    "arm": "0",
    "bts": "3",
    "w": "1",
    "s": "2",
    "ava": "1",
    "spec": [
      "Sixth Sense L1"
    ],
    "childs": [
      {
        "id": 1,
        "name": "Hacker",
        "legacy_code": "Default",
        "cost": "19",
        "swc": "1",
        "spec": [
          "Hacking Device"
        ],
        "bsw": [
          "Boarding Shotgun"
        ],
        "ccw": [
          "Knife",
          "Pistol"
        ]
      },
      {
        "id": 2,
        "name": "Defensive Hacking Device",
        "legacy_code": "Defensive Hacking Device",
        "cost": "17",
        "swc": "0.5",
        "spec": [
          "Defensive Hacking Device"
        ],
        "bsw": [
          "Boarding Shotgun"
        ],
        "ccw": [
          "Knife",
          "Pistol"
        ]
      }
    ]
  },
  {
    "id": 9022,
    "army": "Non-Aligned Armies",
    "isc": "Armand 'Le Muet'",
    "legacy_isc": "Armand 'Le Muet'",
    "name": "Armand",
    "ava": "1",
    "spec": [],
    "profiles": [
      {
        "id": 1,
        "name": "Armand",
        "type": "MI",
        "classification": "Mercenary",
        "imp": "",
        "irr": "",
        "cube": "X",
        "mov": "4-2",
        "cc": "18",
        "bs": "13",
        "ph": "12",
        "wip": "13",
        "arm": "2",
        "bts": "0",
        "w": "1",
        "s": "2",
        "spec": [
          "Symbiont Armor",
          "ODD: Optical Disruptor",
          "Forward Deployment L1"
        ],
        "bsw": [],
        "ccw": []
      },
      {
        "id": 2,
        "name": "Inactive Armor",
        "type": "LI",
        "imp": "",
        "irr": " ",
        "cube": "X",
        "mov": "4-4",
        "cc": "18",
        "bs": "13",
        "ph": "12",
        "wip": "13",
        "arm": "0",
        "bts": "0",
        "w": "1",
        "s": "2",
        "ava": " ",
        "spec": [
          "Symbiont Armor"
        ],
        "bsw": [],
        "ccw": []
      }
    ],
    "childs": [
      {
        "id": 1,
        "name": "Minelayer",
        "legacy_code": "Default",
        "cost": "42",
        "swc": "1.5",
        "spec": [
          "Minelayer"
        ],
        "bsw": [
          "MULTI Sniper Rifle",
          "Nanopulser",
          "Antipersonnel Mines"
        ],
        "ccw": [
          "Breaker Pistol (2)",
          "Shock CCW",
          "Knife"
        ]
      },
      {
        "id": 2,
        "name": "MSV 1",
        "legacy_code": "MSV 1",
        "cost": "45",
        "swc": "1.5",
        "spec": [
          "Multispectral Visor L1"
        ],
        "bsw": [
          "MULTI Sniper Rifle",
          "Nanopulser"
        ],
        "ccw": [
          "Breaker Pistol (2)",
          "Shock CCW",
          "Knife"
        ]
      }
    ]
  },
  {
    "id": 9023,
    "army": "Non-Aligned Armies",
    "isc": "Krakot Renegades, Morat Fugitives",
    "legacy_isc": "Krakot Renegades, Morat Fugitives",
    "name": "Krakot",
    "ava": "2",
    "spec": [
      "Berserk",
      "Forward Deployment L1",
      "Kinematika L1",
      "MetaChemistry L2",
      "Morat"
    ],
    "profiles": [
      {
        "id": 1,
        "name": "Krakot",
        "type": "LI",
        "classification": "Mercenary",
        "imp": "I",
        "irr": "",
        "cube": "",
        "mov": "4-4",
        "cc": "21",
        "bs": "11",
        "ph": "13",
        "wip": "12",
        "arm": "1",
        "bts": "0",
        "w": "1",
        "s": "2",
        "spec": [],
        "bsw": [],
        "ccw": []
      }
    ],
    "childs": [
      {
        "id": 1,
        "name": "Dual SMG",
        "legacy_code": "Dual SMG",
        "cost": "17",
        "swc": "0",
        "spec": [],
        "bsw": [
          "Submachine Gun (2)",
          "Chest Mines"
        ],
        "ccw": [
          "Pistol",
          "Shock CCW"
        ]
      },
      {
        "id": 2,
        "name": "Boarding Shotgun",
        "legacy_code": "Boarding Shotgun",
        "cost": "18",
        "swc": "0",
        "spec": [],
        "bsw": [
          "Boarding Shotgun",
          "Chest Mines"
        ],
        "ccw": [
          "Pistol",
          "Shock CCW"
        ]
      },
      {
        "id": 3,
        "name": "Dual Chain Rifle",
        "legacy_code": "Dual Chain Rifle",
        "cost": "14",
        "swc": "0",
        "spec": [],
        "bsw": [
          "Chain Rifle (2)",
          "Grenades"
        ],
        "ccw": [
          "Pistol",
          "DA CCW"
        ]
      },
      {
        "id": 4,
        "name": "SMG",
        "legacy_code": "SMG",
        "cost": "15",
        "swc": "0",
        "spec": [],
        "bsw": [
          "Submachine Gun",
          "Chest Mines"
        ],
        "ccw": [
          "Pistol",
          "DA CCW"
        ]
      },
      {
        "id": 5,
        "name": "Red Fury",
        "cost": "24",
        "swc": "1",
        "spec": [],
        "bsw": [
          "Red Fury",
          "Chest Mines"
        ],
        "ccw": [
          "Pistol",
          "Shock CCW"
        ]
      }
    ]
  },
  {
    "id": 9028,
    "army": "Non-Aligned Armies",
    "isc": "Knauf, Outlaw Sniper",
    "name": "Knauf",
    "type": "LI",
    "classification": "Mercenary",
    "imp": "",
    "irr": "",
    "cube": "",
    "mov": "4-4",
    "cc": "19",
    "bs": "13",
    "ph": "11",
    "wip": "13",
    "arm": "1",
    "bts": "0",
    "w": "1",
    "s": "2",
    "ava": "1",
    "spec": [
      "Multispectral Visor L1",
      "CH: Mimetism",
      "Multiterrain",
      "Marksmanship L1",
      "Stealth"
    ],
    "childs": [
      {
        "id": 1,
        "name": "MULTI Sniper",
        "cost": "32",
        "swc": "1.5",
        "spec": [],
        "bsw": [
          "MULTI Sniper Rifle"
        ],
        "ccw": [
          "Knife",
          "Heavy Pistol"
        ]
      }
    ]
  },
  {
    "id": 9029,
    "army": "Non-Aligned Armies",
    "isc": "Major Lunah, ex-Ariesteia! Sniper",
    "name": "Major Lunah",
    "type": "LI",
    "classification": "Mercenary",
    "imp": "",
    "irr": "",
    "cube": "X",
    "mov": "4-4",
    "cc": "17",
    "bs": "12",
    "ph": "10",
    "wip": "14",
    "arm": "1",
    "bts": "0",
    "w": "1",
    "s": "2",
    "ava": "1",
    "spec": [
      "CH: Limited Camouflage",
      "CH: Mimetism",
      "Multiterrain",
      "Marksmanship LX",
      "Stealth",
      "Religious Troop"
    ],
    "childs": [
      {
        "id": 1,
        "name": "Viral Sniper",
        "cost": "29",
        "swc": "1.5",
        "spec": [],
        "bsw": [
          "Viral Sniper Rifle"
        ],
        "ccw": [
          "Knife",
          "Pistol"
        ]
      }
    ]
  },
  {
    "id": 9030,
    "army": "Non-Aligned Armies",
    "isc": "Cube Jäger, Mercenary Recoverers",
    "name": "Jäger",
    "type": "LI",
    "classification": "Mercenary",
    "imp": "",
    "irr": "X",
    "cube": "",
    "mov": "4-4",
    "cc": "14",
    "bs": "11",
    "ph": "10",
    "wip": "13",
    "arm": "1",
    "bts": "3",
    "w": "1",
    "s": "2",
    "ava": "1",
    "spec": [
      "MediKit",
      "AD: Airborne Infiltration",
      "Shock Immunity",
      "Paramedic",
      "Stealth"
    ],
    "childs": [
      {
        "id": 1,
        "name": "SMG",
        "cost": "18",
        "swc": "0.5",
        "spec": [],
        "bsw": [
          "Submachine Gun",
          "E/Mitter"
        ],
        "ccw": [
          "Monofilament CCW",
          "Pistol"
        ]
      },
      {
        "id": 2,
        "name": "Boarding Shotgun",
        "cost": "21",
        "swc": "0.5",
        "spec": [],
        "bsw": [
          "Boarding Shotgun"
        ],
        "ccw": [
          "Monofilament CCW",
          "Pistol"
        ]
      }
    ]
  },
  {
    "id": 9031,
    "army": "Non-Aligned Armies",
    "isc": "Druze Shock Teams",
    "name": "Druze",
    "type": "MI",
    "classification": "Veteran",
    "imp": "",
    "irr": "",
    "cube": "X",
    "mov": "4-2",
    "cc": "15",
    "bs": "12",
    "ph": "11",
    "wip": "13",
    "arm": "3",
    "bts": "3",
    "w": "1",
    "s": "2",
    "ava": "T",
    "spec": [
      "Fireteam: Duo",
      "Fatality L1",
      "Veteran L1"
    ],
    "childs": [
      {
        "id": 1,
        "name": "Combi",
        "cost": "23",
        "swc": "0",
        "spec": [
          "X Visor"
        ],
        "bsw": [
          "Combi Rifle",
          "Chain-Colt"
        ],
        "ccw": [
          "Viral Pistol",
          "Knife"
        ]
      },
      {
        "id": 2,
        "name": "HMG",
        "cost": "29",
        "swc": "1.5",
        "spec": [],
        "bsw": [
          "HMG",
          "Chain-Colt"
        ],
        "ccw": [
          "Viral Pistol",
          "Knife"
        ]
      },
      {
        "id": 3,
        "name": "Combi Haris",
        "cost": "25",
        "swc": "1",
        "spec": [
          "X Visor",
          "Fireteam: Haris"
        ],
        "bsw": [
          "Combi Rifle",
          "Chain-Colt",
          "D.E.P."
        ],
        "ccw": [
          "Viral Pistol",
          "CCW"
        ]
      },
      {
        "id": 4,
        "name": "Panzerfaust",
        "cost": "25",
        "swc": "0",
        "spec": [
          "X Visor"
        ],
        "bsw": [
          "Combi Rifle",
          "Chain-Colt",
          "Panzerfaust"
        ],
        "ccw": [
          "Viral Pistol",
          "Knife"
        ]
      },
      {
        "id": 5,
        "name": "Light Grenade Launcher",
        "cost": "27",
        "swc": "0.5",
        "spec": [
          "X Visor"
        ],
        "bsw": [
          "Combi Rifle",
          "E/M Light Grenade Launcher",
          "Light Nimbus Grenade Launcher"
        ],
        "ccw": [
          "Viral Pistol",
          "Knife"
        ]
      },
      {
        "id": 6,
        "name": "MULTI Sniper",
        "cost": "32",
        "swc": "1.5",
        "spec": [
          "CH: Mimetism"
        ],
        "bsw": [
          "MULTI Sniper Rifle"
        ],
        "ccw": [
          "Viral Pistol",
          "Knife"
        ]
      },
      {
        "id": 7,
        "name": "Marksman Rifle",
        "cost": "27",
        "swc": "0",
        "spec": [
          "X Visor"
        ],
        "bsw": [
          "Shock Marksman Rifle",
          "Chain-Colt"
        ],
        "ccw": [
          "Viral Pistol",
          "Knife"
        ]
      },
      {
        "id": 8,
        "name": "Killer Hacker",
        "cost": "25",
        "swc": "0",
        "spec": [
          "Killer Hacking Device"
        ],
        "bsw": [
          "Combi Rifle",
          "Pitcher",
          "D-Charges"
        ],
        "ccw": [
          "Viral Pistol",
          "Knife"
        ]
      },
      {
        "id": 9,
        "name": "Assault Hacker",
        "cost": "28",
        "swc": "0.5",
        "spec": [
          "Assault Hacking Device"
        ],
        "bsw": [
          "Combi Rifle",
          "Pitcher",
          "D-Charges"
        ],
        "ccw": [
          "Viral Pistol",
          "Knife"
        ]
      },
      {
        "id": 10,
        "name": "Paramedic",
        "cost": "25",
        "swc": "0",
        "spec": [
          "X Visor",
          "MediKit"
        ],
        "bsw": [
          "Combi Rifle",
          "Chain-Colt"
        ],
        "ccw": [
          "Viral Pistol",
          "Knife"
        ]
      },
      {
        "id": 11,
        "name": "Lieutenant",
        "cost": "23",
        "swc": "0",
        "spec": [
          "X Visor",
          "Lieutenant"
        ],
        "bsw": [
          "Combi Rifle",
          "Chain-Colt"
        ],
        "ccw": [
          "Viral Pistol",
          "Knife"
        ]
      }
    ]
  },
  {
    "id": 9032,
    "army": "Non-Aligned Armies",
    "isc": "Security Chief Arslan",
    "name": "Arslan",
    "type": "MI",
    "classification": "Veteran",
    "imp": "",
    "irr": "",
    "cube": "X",
    "mov": "4-2",
    "cc": "16",
    "bs": "13",
    "ph": "11",
    "wip": "13",
    "arm": "3",
    "bts": "3",
    "w": "1",
    "s": "2",
    "ava": "1",
    "spec": [
      "Multispectral Visor L1",
      "Fireteam: Duo",
      "Fatality L1",
      "Hyper-Dynamics L1",
      "V: No Wound Incapacitation",
      "Veteran L1"
    ],
    "childs": [
      {
        "id": 1,
        "name": "MULTI Rifle",
        "cost": "36",
        "swc": "0",
        "spec": [],
        "bsw": [
          "MULTI Rifle",
          "Light Shotgun"
        ],
        "ccw": [
          "Viral Pistol",
          "Knife"
        ]
      },
      {
        "id": 2,
        "name": "Lieutenant",
        "cost": "36",
        "swc": "0",
        "spec": [
          "Lieutenant"
        ],
        "bsw": [
          "MULTI Rifle",
          "Light Shotgun"
        ],
        "ccw": [
          "Viral Pistol",
          "Knife"
        ]
      }
    ]
  },
  {
    "id": 9033,
    "army": "Non-Aligned Armies",
    "isc": "Authorized Bounty Hunters",
    "name": "Bounty Hunter",
    "type": "LI",
    "classification": "Specially Trained",
    "imp": "",
    "irr": "",
    "cube": "X",
    "mov": "4-4",
    "cc": "14",
    "bs": "12",
    "ph": "10",
    "wip": "13",
    "arm": "1",
    "bts": "3",
    "w": "1",
    "s": "2",
    "ava": "2",
    "spec": [
      "Booty L2",
      "Stealth",
      "Fireteam: Duo"
    ],
    "childs": [
      {
        "id": 1,
        "name": "Combi",
        "cost": "16",
        "swc": "0",
        "spec": [],
        "bsw": [
          "Combi Rifle"
        ],
        "ccw": [
          "Pistol",
          "Knife"
        ]
      },
      {
        "id": 2,
        "name": "Boarding Shotgun",
        "cost": "15",
        "swc": "0",
        "spec": [],
        "bsw": [
          "Boarding Shotgun"
        ],
        "ccw": [
          "Pistol",
          "Knife"
        ]
      },
      {
        "id": 3,
        "name": "Sniper Rifle",
        "cost": "21",
        "swc": "0.5",
        "spec": [],
        "bsw": [
          "Sniper Rifle"
        ],
        "ccw": [
          "Breaker Pistol (2)",
          "Knife"
        ]
      },
      {
        "id": 4,
        "name": "Spitfire",
        "cost": "22",
        "swc": "1",
        "spec": [],
        "bsw": [
          "Spitfire"
        ],
        "ccw": [
          "Pistol",
          "Knife"
        ]
      },
      {
        "id": 5,
        "name": "Red Fury",
        "cost": "21",
        "swc": "0.5",
        "spec": [],
        "bsw": [
          "Red Fury"
        ],
        "ccw": [
          "Pistol",
          "Knife"
        ]
      }
    ]
  },
  {
    "id": 9034,
    "army": "Non-Aligned Armies",
    "isc": "Bashi Bazouks",
    "name": "Bashi Bazouk",
    "type": "LI",
    "classification": "Specially Trained",
    "imp": "",
    "irr": "X",
    "cube": "",
    "mov": "4-4",
    "cc": "15",
    "bs": "11",
    "ph": "10",
    "wip": "12",
    "arm": "2",
    "bts": "0",
    "w": "1",
    "s": "2",
    "ava": "4",
    "spec": [
      "AD: Parachutist / Zero-G",
      "Holoprojector L2"
    ],
    "childs": [
      {
        "id": 1,
        "name": "Rifle",
        "cost": "16",
        "swc": "0",
        "spec": [],
        "bsw": [
          "Rifle",
          "Light Shotgun"
        ],
        "ccw": [
          "CCW",
          "Pistol"
        ]
      },
      {
        "id": 2,
        "name": "Boarding Shotgun",
        "cost": "15",
        "swc": "0",
        "spec": [],
        "bsw": [
          "Boarding Shotgun"
        ],
        "ccw": [
          "CCW",
          "Pistol"
        ]
      },
      {
        "id": 3,
        "name": "AP Rifle",
        "cost": "17",
        "swc": "0",
        "spec": [],
        "bsw": [
          "AP Rifle"
        ],
        "ccw": [
          "CCW",
          "Breaker Pistol (2)"
        ]
      },
      {
        "id": 4,
        "name": "E/Mauler",
        "cost": "17",
        "swc": "0",
        "spec": [],
        "bsw": [
          "Combi Rifle",
          "E/Mauler"
        ],
        "ccw": [
          "CCW",
          "Pistol"
        ]
      },
      {
        "id": 5,
        "name": "Submachine Gun",
        "cost": "12",
        "swc": "0",
        "spec": [],
        "bsw": [
          "Submachine Gun",
          "Chain-Colt"
        ],
        "ccw": [
          "CCW",
          "Pistol"
        ]
      },
      {
        "id": 6,
        "name": "Specialist",
        "cost": "17",
        "swc": "0",
        "spec": [
          "Specialist Operative"
        ],
        "bsw": [
          "Rifle",
          "Light Shotgun"
        ],
        "ccw": [
          "CCW",
          "Pistol"
        ]
      }
    ]
  },
  {
    "id": 9035,
    "army": "Non-Aligned Armies",
    "isc": "Clipper Dronbot",
    "name": "Clipper Dronbot",
    "type": "REM",
    "classification": "Support",
    "imp": "",
    "irr": "",
    "cube": "",
    "hackable": "X",
    "mov": "6-4",
    "cc": "8",
    "bs": "12",
    "ph": "10",
    "wip": "13",
    "arm": "0",
    "bts": "3",
    "w": "1",
    "s": "3",
    "ava": "1",
    "spec": [
      "G: Remote Presence"
    ],
    "childs": [
      {
        "id": 1,
        "name": "Smart Missile Launcher",
        "cost": "18",
        "swc": "1.5",
        "spec": [],
        "bsw": [
          "Smart Missile Launcher"
        ],
        "ccw": [
          "Electric Pulse"
        ]
      },
      {
        "id": 2,
        "name": "Missile Launcher",
        "cost": "17",
        "swc": "1.5",
        "spec": [],
        "bsw": [
          "Missile Launcher"
        ],
        "ccw": [
          "Electric Pulse"
        ]
      }
    ]
  },
  {
    "id": 9036,
    "army": "Non-Aligned Armies",
    "isc": "Brawlers, Mercenary Enforcers",
    "name": "Brawler",
    "type": "LI",
    "classification": "Specially Trained",
    "imp": "",
    "irr": "",
    "cube": "X",
    "mov": "4-4",
    "cc": "14",
    "bs": "12",
    "ph": "11",
    "wip": "12",
    "arm": "2",
    "bts": "3",
    "w": "1",
    "s": "2",
    "ava": "4",
    "spec": [
      "Fireteam: Duo"
    ],
    "childs": [
      {
        "id": 1,
        "name": "Rifle",
        "cost": "16",
        "swc": "0",
        "spec": [],
        "bsw": [
          "Rifle",
          "Light Shotgun"
        ],
        "ccw": [
          "Pistol",
          "Knife"
        ]
      },
      {
        "id": 2,
        "name": "Heavy Rocket Launcher",
        "cost": "18",
        "swc": "1.5",
        "spec": [],
        "bsw": [
          "Heavy Rocket Launcher"
        ],
        "ccw": [
          "Assault Pistol",
          "Knife"
        ]
      },
      {
        "id": 3,
        "name": "MULTI Sniper",
        "cost": "28",
        "swc": "1.5",
        "spec": [
          "Multispectral Visor L2"
        ],
        "bsw": [
          "MULTI Sniper Rifle"
        ],
        "ccw": [
          "Pistol",
          "Knife"
        ]
      },
      {
        "id": 4,
        "name": "Haris",
        "cost": "17",
        "swc": "0.5",
        "spec": [
          "Fireteam: Haris"
        ],
        "bsw": [
          "Rifle",
          "Light Shotgun"
        ],
        "ccw": [
          "Pistol",
          "Knife"
        ]
      },
      {
        "id": 5,
        "name": "Assault Hacker",
        "cost": "17",
        "swc": "0.5",
        "spec": [
          "Assault Hacking Device"
        ],
        "bsw": [
          "Submachine Gun"
        ],
        "ccw": [
          "Pistol",
          "Knife"
        ]
      },
      {
        "id": 6,
        "name": "Engineer",
        "cost": "20",
        "swc": "0",
        "spec": [
          "Engineer"
        ],
        "bsw": [
          "Rifle",
          "Light Shotgun",
          "D-Charges"
        ],
        "ccw": [
          "Pistol",
          "Knife"
        ]
      },
      {
        "id": 7,
        "name": "Doctor",
        "cost": "20",
        "swc": "0",
        "spec": [
          "Doctor",
          "MediKit"
        ],
        "bsw": [
          "Rifle",
          "Light Shotgun"
        ],
        "ccw": [
          "Pistol",
          "Knife"
        ]
      },
      {
        "id": 8,
        "name": "Lieutenant",
        "cost": "16",
        "swc": "0",
        "spec": [
          "Lieutenant"
        ],
        "bsw": [
          "Rifle",
          "Light Shotgun"
        ],
        "ccw": [
          "Pistol",
          "Knife"
        ]
      },
    ]
  },
  {
    "id": 9037,
    "army": "Non-Aligned Armies",
    "isc": "Saito Tōgan",
    "name": "Saito Tōgan",
    "type": "SK",
    "classification": "Mercenary",
    "imp": "",
    "irr": "",
    "cube": "X",
    "mov": "4-4",
    "cc": "24",
    "bs": "11",
    "ph": "13",
    "wip": "13",
    "arm": "1",
    "bts": "0",
    "w": "1",
    "s": "2",
    "ava": "1",
    "spec": [
      "Martial Arts L4",
      "CH: TO Camouflage",
      "Multiterrain",
      "Kinematika L1",
      "Infiltration"
    ],
    "childs": [
      {
        "id": 1,
        "name": "Combi",
        "cost": "39",
        "swc": "0",
        "spec": [],
        "bsw": [
          "Combi Rifle",
          "Smoke Grenades"
        ],
        "ccw": [
          "Pistol",
          "EXP CCW",
          "Knife"
        ]
      },
      {
        "id": 2,
        "name": "Combi",
        "cost": "40",
        "swc": "0",
        "spec": [
          "Specialist Operative"
        ],
        "bsw": [
          "Combi Rifle",
          "Smoke Grenades"
        ],
        "ccw": [
          "Pistol",
          "EXP CCW",
          "Knife"
        ]
      }
    ]
  },
  {
    "id": 9038,
    "army": "Non-Aligned Armies",
    "isc": "Scarface & Cordelia Private Armored Team",
    "name": "Scarface",
    "ava": "1",
    "spec": [],
    "profiles": [
      {
        "id": 1,
        "name": "Scarface",
        "type": "TAG",
        "classification": "Mercenary",
        "imp": "F",
        "irr": "",
        "cube": "X",
        "hackable": "X",
        "mov": "6-4",
        "cc": "19",
        "bs": "13",
        "ph": "15",
        "wip": "13",
        "arm": "5",
        "bts": "6",
        "w": "3",
        "s": "7",
        "spec": [
          "ECM",
          "V: Courage",
          "Manned",
          "Assault",
          "Fireteam: Duo"
        ],
        "bsw": [],
        "ccw": [],
        "independent": {
          "cost": "57",
          "swc": "1.5"
        }
      },
      {
        "id": 2,
        "name": "Pilot",
        "type": "LI",
        "hackable": "",
        "mov": "4-4",
        "cc": "15",
        "bs": "12",
        "ph": "11",
        "wip": "13",
        "arm": "0",
        "bts": "0",
        "w": "1",
        "s": "2",
        "ava": "",
        "spec": [
          "Pilot",
          "V: Courage",
          "Specialist Operative",
          "Fireteam: Duo"
        ],
        "bsw": [
          "Boarding Shotgun"
        ],
        "ccw": [
          "Pistol",
          "CCW"
        ]
      },
      {
        "id": 3,
        "name": "Cordelia Turner",
        "type": "LI",
        "imp": "",
        "irr": "",
        "cube": "X",
        "hackable": "",
        "mov": "4-4",
        "cc": "13",
        "bs": "11",
        "ph": "10",
        "wip": "13",
        "arm": "1",
        "bts": "3",
        "w": "1",
        "s": "2",
        "ava": "1",
        "spec": [
          "CH: Mimetism",
          "Engineer",
          "V: Courage",
          "Fireteam: Duo"
        ],
        "bsw": [
          "Combi Rifle",
          "Chain-Colt"
        ],
        "ccw": [
          "D-Charges",
          "Pistol",
          "Knife"
        ],
        "independent": {
          "cost": "17",
          "swc": "0"
        }
      }
    ],
    "childs": [
      {
        "id": 1,
        "name": "Mk12 + HRL",
        "cost": "74",
        "swc": "1.5",
        "spec": [],
        "bsw": [
          "Mk12 (2)",
          "Heavy Rocket Launcher"
        ],
        "ccw": [
          "CCW"
        ]
      }
    ]
  },
  {
    "id": 9039,
    "army": "Non-Aligned Armies",
    "isc": "Brawler Spec-Ops",
    "name": "Brawler Spec-Ops",
    "type": "SPEC-OPS",
    "imp": "",
    "irr": "",
    "cube": "",
    "mov": "X-X",
    "cc": "X",
    "bs": "X",
    "ph": "X",
    "wip": "X",
    "arm": "X",
    "bts": "X",
    "w": "X",
    "ava": "1",
    "spec": [
      "Spec-Op"
    ],
    "childs": [
      {
        "id": 1,
        "name": "Spec-Ops",
        "cost": "0",
        "swc": "0",
        "spec": [],
        "bsw": [],
        "ccw": []
      }
    ]
  },
  {
    "id": 9040,
    "army": "Non-Aligned Armies",
    "isc": "Brawlers, Mercenary Enforcers",
    "name": "Brawler",
    "type": "LI",
    "classification": "Specially Trained",
    "imp": "",
    "irr": "",
    "cube": "X",
    "mov": "4-4",
    "cc": "14",
    "bs": "12",
    "ph": "11",
    "wip": "12",
    "arm": "2",
    "bts": "3",
    "w": "1",
    "s": "2",
    "ava": "4",
    "spec": [
      "Fireteam: Duo"
    ],
    "childs": [
      {
        "id": 1,
        "name": "Spec-Ops",
        "cost": "17",
        "swc": "0",
        "spec": [],
        "bsw": [
          "Rifle",
          "Light Shotgun"
        ],
        "ccw": [
          "Pistol",
          "Knife"
        ]
      }
    ]
  }
 ]
