{
  "specopsisc": {
    "7999": [
      {
        "comment": "Chandra Spec-Ops",
        "id": 7025,
        "basemodels": [
          {
            "comment": "Thorakitai / Combi",
            "unit_id": 7027,
            "child_id": 2
          }
        ]
      }
    ],
    "3999": [
      {
        "comment": "Intel Spec-Ops",
        "id": 3040,
        "basemodels": [
          {
            "comment": "Line Kazak / Rifle",
            "unit_id": 3001,
            "child_id": 1
          },
          {
            "comment": "Caledonian Volunteers / Rifle",
            "unit_id": 3022,
            "child_id": 8
          },
          {
            "comment": "Métros / Rifle",
            "unit_id": 3027,
            "child_id": 8
          },
          {
            "comment": "USAriadna Grunts / Rifle",
            "unit_id": 3004,
            "child_id": 1
          }
        ]
      }
    ],
    "6999": [
      {
        "comment": "Corax Spec-Ops",
        "id": 6041,
        "basemodels": [
          {
            "comment": "Shasvastii Seed-Soldiers / Combi",
            "unit_id": 6030,
            "child_id": 1
          }
        ]
      },
      {
        "comment": "Treitak Spec-Ops",
        "id": 6039,
        "basemodels": [
          {
            "comment": "Morat Vanguard Infantry / Combi",
            "unit_id": 6001,
            "child_id": 1
          }
        ]
      }
    ],
    "4999": [
      {
        "comment": "Husam Spec-Ops",
        "id": 4037,
        "basemodels": [
          {
            "comment": "Ghulam / Rifle",
            "unit_id": 4002,
            "child_id": 1
          },
          {
            "comment": "Hassassin Muyibs / Panzerfaust",
            "unit_id": 4031,
            "child_id": 1
          },
          {
            "comment": "Hafza Unit / Rifle",
            "unit_id": 4028,
            "child_id": 1
          }
        ]
      }
    ],
    "5999": [
      {
        "comment": "Vortex Spec-Ops",
        "id": 5042,
        "basemodels": [
          {
            "comment": "Alguaciles / Combi",
            "unit_id": 5001,
            "child_id": 1
          },
          {
            "comment": "Moderators from Bakunin / Combi",
            "unit_id": 5028,
            "child_id": 1
          }
        ]
      }
    ],
    "1999": [
      {
        "comment": "Indigo Spec-Ops",
        "id": 1045,
        "basemodels": [
          {
            "comment": "Fusiliers / Combi",
            "unit_id": 1001,
            "child_id": 1
          },
          {
            "comment": "Acontecimento Regulars / Combi",
            "unit_id": 1023,
            "child_id": 1
          },
          {
            "comment": "Order Sergeants / Combi",
            "unit_id": 1030,
            "child_id": 8
          }
        ]
      }
    ],
    "8999": [
      {
        "comment": "Hatail Spec-Ops",
        "id": 8014,
        "basemodels": [
          {
            "comment": "Kamael Light Infantry / Combi",
            "unit_id": 8001,
            "child_id": 1
          }
        ]
      }
    ],
    "2999": [
      {
        "comment": "Guǐ Fēng Spec-Ops",
        "id": 2043,
        "basemodels": [
          {
            "comment": "Keisotsu / Combi",
            "unit_id": 2001,
            "child_id": 1
          },
          {
            "comment": "Zhanshi / Combi",
            "unit_id": 2002,
            "child_id": 1
          },
          {
            "comment": "Celestial Guard / Combi",
            "unit_id": 2022,
            "child_id": 1
          }
        ]
      }
    ],
    "9999": [
      {
        "comment": "Brawler Spec-Ops",
        "id": 9039,
        "basemodels": [
          {
            "comment": "Brawler / Spec-ops (+1 point cost)",
            "unit_id": 9040,
            "child_id": 1
          }
        ]
      }
    ],
  },
  "attributeboost": {
    "cc": [
      2,
      3,
      5
    ],
    "bs": [
      1,
      1,
      1
    ],
    "ph": [
      1,
      2,
      0
    ],
    "wip": [
      1,
      2,
      3
    ],
    "arm": [
      0,
      1,
      2
    ],
    "bts": [
      -3,
      -3,
      -3
    ],
    "w": [
      0,
      0,
      1
    ]
  },
  "attributeboostcost": [
    2,
    3,
    5
  ],
  "attributeboostmax": {
    "ph": 14,
    "wip": 15,
    "w": 2
  },
  "extraweapons": {
    "7999": {
      "AP CCW": 1,
      "Assault Pistol": 3,
      "Boarding Shotgun": 2,
      "Contender": 4,
      "EXP CCW": 1,
      "Grenades": 2,
      "HMG": 8,
      "MULTI Rifle": 5,
      "MULTI Sniper Rifle": 6,
      "Nanopulser": 3,
      "Spitfire": 6,
      "Stun Pistol": 1
    },
    "3999": {
      "AP CCW": 1,
      "AP HMG": 9,
      "AP Sniper Rifle": 5,
      "Adhesive Launcher": 3,
      "Boarding Shotgun": 2,
      "Chain Rifle": 2,
      "Grenades": 3,
      "HMG": 8,
      "Molotok": 6,
      "Panzerfaust": 4,
      "Stun Pistol": 1,
      "T2 Rifle": 5
    },
    "6999": {
      "Boarding Shotgun": 2,
      "Contender": 4,
      "EXP CCW": 1,
      "Grenades": 3,
      "HMG": 8,
      "MULTI Rifle": 5,
      "MULTI Sniper Rifle": 6,
      "Monofilament CCW": 2,
      "Nanopulser": 3,
      "Plasma Rifle": 6,
      "Spitfire": 6,
      "Stun Pistol": 1
    },
    "4999": {
      "Boarding Shotgun": 2,
      "Contender": 4,
      "EXP CCW": 1,
      "Grenades": 3,
      "HMG": 8,
      "Nanopulser": 3,
      "Panzerfaust": 4,
      "Spitfire": 6,
      "Stun Pistol": 1,
      "Viral CCW": 1,
      "Viral Rifle": 5,
      "Viral Sniper Rifle": 6
    },
    "5999": {
      "AP CCW": 1,
      "Assault Pistol": 3,
      "Boarding Shotgun": 2,
      "Contender": 4,
      "EXP CCW": 1,
      "Grenades": 2,
      "HMG": 8,
      "MULTI Rifle": 5,
      "MULTI Sniper Rifle": 6,
      "Nanopulser": 3,
      "Spitfire": 6,
      "Stun Pistol": 1
    },
    "1999": {
      "AP CCW": 1,
      "Assault Pistol": 3,
      "Boarding Shotgun": 2,
      "Contender": 4,
      "EXP CCW": 1,
      "Grenades": 2,
      "HMG": 8,
      "MULTI Rifle": 5,
      "MULTI Sniper Rifle": 6,
      "Nanopulser": 3,
      "Spitfire": 6,
      "Stun Pistol": 1
    },
    "8999": {
      "Adhesive Launcher": 3,
      "Flammenspeer": 4,
      "HMG": 8,
      "Heavy Flamethrower": 4,
      "Nanopulser": 3,
      "Sniper Rifle": 5,
      "Spitfire": 6,
      "Stun Pistol": 1,
      "Swarm Grenades": 4,
      "Viral CCW": 1,
      "Viral Combi Rifle": 5,
      "Vulkan Shotgun": 3
    },
    "2999": {
      "AP CCW": 1,
      "Assault Pistol": 3,
      "Boarding Shotgun": 2,
      "Contender": 4,
      "EXP CCW": 1,
      "Grenades": 2,
      "HMG": 8,
      "MULTI Rifle": 5,
      "MULTI Sniper Rifle": 6,
      "Nanopulser": 3,
      "Spitfire": 6,
      "Stun Pistol": 1
    },
    "9999": {
      "Boarding Shotgun": 2,
      "Contender": 4,
      "EXP CCW": 1,
      "Grenades": 3,
      "HMG": 8,
      "Nanopulser": 3,
      "Panzerfaust": 4,
      "Spitfire": 6,
      "Stun Pistol": 1,
      "Viral CCW": 1,
      "Viral Rifle": 5,
      "Viral Sniper Rifle": 6
    },
  },
  "extraspecs": {
    "AD: Inferior Combat Jump": 6,
    "AutoMediKit": 6,
    "CH: Mimetism": 4,
    "CUBEVAC +1": 3,
    "Chain of Command": 8,
    "Climbing Plus": 3,
    "Cube": 2,
    "Doctor": 2,
    "Engineer": 2,
    "Hacking Device": 2,
    "Holoprojector L1": 3,
    "Holoprojector L2": 8,
    "Hyper-Dynamics L1": 2,
    "Hyper-Dynamics L2": 5,
    "Hyper-Dynamics L3": 10,
    "Inferior Infiltration": 4,
    "Infiltration": 8,
    "MEDEVAC +1": 2,
    "Martial Arts L3": 2,
    "Martial Arts L4": 5,
    "Martial Arts L5": 9,
    "Minelayer": 2,
    "Natural Born Warrior": 2,
    "Regeneration": 8,
    "Religious Troop": 4,
    "Sapper": 8,
    "Specialist Troop": 1,
    "Super-Jump": 4,
    "V: No Wound Incapacitation": 8
  }
}
